/home/h5guo/anaconda3/envs/cssl/lib/python3.9/site-packages/torchvision/io/image.py:13: UserWarning: Failed to load image Python extension: libtorch_cuda_cu.so: cannot open shared object file: No such file or directory
  warn(f"Failed to load image Python extension: {e}")
/home/h5guo/anaconda3/envs/cssl/lib/python3.9/site-packages/torchvision/transforms/transforms.py:332: UserWarning: Argument 'interpolation' of type int is deprecated since 0.13 and will be removed in 0.15. Please use InterpolationMode enum.
  warnings.warn(
creating file /home/h5guo/simsiam/logs/NoMixUp_randcrop_simsiam_cifar100_500/in-progress_1106234206_simsiam-cifar100-experiment-resnet18_cifar_variant1
Files already downloaded and verified
Files already downloaded and verified
Files already downloaded and verified
Epoch: 0, Accuracy: 13.898026315789474
Model saved to /home/h5guo/work/simsiam/ckpt/NoMixUp_randcrop_simsiam_cifar100_500/simsiam-cifar100-experiment-resnet18_cifar_variant1_0.pth
Best model saved
Epoch: 1, Accuracy: 13.743832236842104
Epoch: 2, Accuracy: 13.671875
Epoch: 3, Accuracy: 14.607319078947366
Best model saved
Epoch: 4, Accuracy: 14.381167763157896
Epoch: 5, Accuracy: 14.987664473684212
Best model saved
Epoch: 6, Accuracy: 15.902549342105262
Best model saved
Epoch: 7, Accuracy: 14.905427631578947
Epoch: 8, Accuracy: 15.275493421052634
Epoch: 9, Accuracy: 15.4296875
Epoch: 10, Accuracy: 15.337171052631579
Epoch: 11, Accuracy: 16.056743421052634
Best model saved
Epoch: 12, Accuracy: 16.550164473684212
Best model saved
Epoch: 13, Accuracy: 16.961348684210524
Best model saved
Epoch: 14, Accuracy: 17.742598684210524
Best model saved
Epoch: 15, Accuracy: 17.763157894736842
Best model saved
Epoch: 16, Accuracy: 18.328536184210524
Best model saved
Epoch: 17, Accuracy: 19.346217105263158
Best model saved
Epoch: 18, Accuracy: 20.045230263157894
Best model saved
Epoch: 19, Accuracy: 20.949835526315788
Best model saved
Epoch: 20, Accuracy: 21.844161184210524
Best model saved
Epoch: 21, Accuracy: 22.111430921052634
Best model saved
Epoch: 22, Accuracy: 22.018914473684212
Epoch: 23, Accuracy: 22.645970394736842
Best model saved
Epoch: 24, Accuracy: 22.892680921052634
Best model saved
Epoch: 25, Accuracy: 23.715049342105264
Best model saved
Epoch: 26, Accuracy: 24.383223684210524
Best model saved
Epoch: 27, Accuracy: 23.612253289473685
Epoch: 28, Accuracy: 25.041118421052634
Best model saved
Epoch: 29, Accuracy: 25.380345394736842
Best model saved
Epoch: 30, Accuracy: 25.411184210526315
Best model saved
Epoch: 31, Accuracy: 25.699013157894733
Best model saved
Epoch: 32, Accuracy: 25.801809210526315
Best model saved
Epoch: 33, Accuracy: 25.298108552631575
Epoch: 34, Accuracy: 25.13363486842105
Epoch: 35, Accuracy: 25.123355263157894
Epoch: 36, Accuracy: 25.678453947368425
Epoch: 37, Accuracy: 26.192434210526315
Best model saved
Epoch: 38, Accuracy: 25.113075657894733
Epoch: 39, Accuracy: 25.06167763157895
Epoch: 40, Accuracy: 25.411184210526315
Epoch: 41, Accuracy: 25.904605263157894
Epoch: 42, Accuracy: 25.71957236842105
Epoch: 43, Accuracy: 25.32894736842105
Epoch: 44, Accuracy: 25.185032894736842
Epoch: 45, Accuracy: 25.349506578947366
Epoch: 46, Accuracy: 25.884046052631575
Epoch: 47, Accuracy: 25.956003289473685
Epoch: 48, Accuracy: 26.161595394736842
Epoch: 49, Accuracy: 26.12047697368421
Epoch: 50, Accuracy: 25.935444078947366
Model saved to /home/h5guo/work/simsiam/ckpt/NoMixUp_randcrop_simsiam_cifar100_500/simsiam-cifar100-experiment-resnet18_cifar_variant1_50.pth
Epoch: 51, Accuracy: 25.770970394736842
Epoch: 52, Accuracy: 26.62417763157895
Best model saved
Epoch: 53, Accuracy: 26.726973684210524
Best model saved
Epoch: 54, Accuracy: 25.853207236842106
Epoch: 55, Accuracy: 26.973684210526315
Best model saved
Epoch: 56, Accuracy: 27.703536184210524
Best model saved
Epoch: 57, Accuracy: 28.053042763157894
Best model saved
Epoch: 58, Accuracy: 28.392269736842106
Best model saved
Epoch: 59, Accuracy: 27.775493421052634
Epoch: 60, Accuracy: 28.865131578947366
Best model saved
Epoch: 61, Accuracy: 28.412828947368425
Epoch: 62, Accuracy: 28.495065789473685
Epoch: 63, Accuracy: 29.296875
Best model saved
Epoch: 64, Accuracy: 30.345394736842106
Best model saved
Epoch: 65, Accuracy: 30.622944078947366
Best model saved
Epoch: 66, Accuracy: 30.838815789473685
Best model saved
Epoch: 67, Accuracy: 30.777138157894733
Epoch: 68, Accuracy: 31.30139802631579
Best model saved
Epoch: 69, Accuracy: 32.04152960526316
Best model saved
Epoch: 70, Accuracy: 32.29851973684211
Best model saved
Epoch: 71, Accuracy: 30.787417763157894
Epoch: 72, Accuracy: 32.04152960526316
Epoch: 73, Accuracy: 32.33963815789473
Best model saved
Epoch: 74, Accuracy: 31.815378289473685
Epoch: 75, Accuracy: 32.80222039473684
Best model saved
Epoch: 76, Accuracy: 32.67886513157895
Epoch: 77, Accuracy: 33.23396381578947
Best model saved
Epoch: 78, Accuracy: 33.984375
Best model saved
Epoch: 79, Accuracy: 34.40583881578947
Best model saved
Epoch: 80, Accuracy: 34.44695723684211
Best model saved
Epoch: 81, Accuracy: 34.52919407894737
Best model saved
Epoch: 82, Accuracy: 34.50863486842105
Epoch: 83, Accuracy: 34.981496710526315
Best model saved
Epoch: 84, Accuracy: 34.89925986842105
Epoch: 85, Accuracy: 35.49547697368421
Best model saved
Epoch: 86, Accuracy: 35.71134868421053
Best model saved
Epoch: 87, Accuracy: 35.59827302631579
Epoch: 88, Accuracy: 35.762746710526315
Best model saved
Epoch: 89, Accuracy: 36.41036184210527
Best model saved
Epoch: 90, Accuracy: 36.57483552631579
Best model saved
Epoch: 91, Accuracy: 36.98601973684211
Best model saved
Epoch: 92, Accuracy: 37.38692434210527
Best model saved
Epoch: 93, Accuracy: 37.58223684210527
Best model saved
Epoch: 94, Accuracy: 37.5
Epoch: 95, Accuracy: 38.19901315789473
Best model saved
Epoch: 96, Accuracy: 38.31208881578947
Best model saved
Epoch: 97, Accuracy: 38.21957236842105
Epoch: 98, Accuracy: 38.62047697368421
Best model saved
Epoch: 99, Accuracy: 38.55879934210527
Epoch: 100, Accuracy: 38.85690789473684
Model saved to /home/h5guo/work/simsiam/ckpt/NoMixUp_randcrop_simsiam_cifar100_500/simsiam-cifar100-experiment-resnet18_cifar_variant1_100.pth
Best model saved
Epoch: 101, Accuracy: 39.432565789473685
Best model saved
Epoch: 102, Accuracy: 40.4296875
Best model saved
Epoch: 103, Accuracy: 40.06990131578947
Epoch: 104, Accuracy: 40.923108552631575
Best model saved
Epoch: 105, Accuracy: 40.28577302631579
Epoch: 106, Accuracy: 41.303453947368425
Best model saved
Epoch: 107, Accuracy: 41.65296052631579
Best model saved
Epoch: 108, Accuracy: 41.75575657894737
Best model saved
Epoch: 109, Accuracy: 41.899671052631575
Best model saved
Epoch: 110, Accuracy: 42.26973684210527
Best model saved
Epoch: 111, Accuracy: 41.92023026315789
Epoch: 112, Accuracy: 41.95106907894737
Epoch: 113, Accuracy: 41.41652960526316
Epoch: 114, Accuracy: 42.752878289473685
Best model saved
Epoch: 115, Accuracy: 43.03042763157895
Best model saved
Epoch: 116, Accuracy: 43.60608552631579
Best model saved
Epoch: 117, Accuracy: 43.68832236842105
Best model saved
Epoch: 118, Accuracy: 43.81167763157895
Best model saved
Epoch: 119, Accuracy: 44.21258223684211
Best model saved
Epoch: 120, Accuracy: 43.338815789473685
Epoch: 121, Accuracy: 43.60608552631579
Epoch: 122, Accuracy: 44.44901315789473
Best model saved
Epoch: 123, Accuracy: 45.014391447368425
Best model saved
Epoch: 124, Accuracy: 44.438733552631575
Epoch: 125, Accuracy: 45.04523026315789
Best model saved
Epoch: 126, Accuracy: 45.57976973684211
Best model saved
Epoch: 127, Accuracy: 45.46669407894737
Epoch: 128, Accuracy: 45.75452302631579
Best model saved
Epoch: 129, Accuracy: 45.42557565789473
Epoch: 130, Accuracy: 45.90871710526316
Best model saved
Epoch: 131, Accuracy: 46.04235197368421
Best model saved
Epoch: 132, Accuracy: 46.268503289473685
Best model saved
Epoch: 133, Accuracy: 47.11143092105263
Best model saved
Epoch: 134, Accuracy: 45.77508223684211
Epoch: 135, Accuracy: 46.60773026315789
Epoch: 136, Accuracy: 47.52261513157895
Best model saved
Epoch: 137, Accuracy: 47.759046052631575
Best model saved
Epoch: 138, Accuracy: 46.463815789473685
Epoch: 139, Accuracy: 46.92639802631579
Epoch: 140, Accuracy: 47.39925986842105
Epoch: 141, Accuracy: 47.18338815789473
Epoch: 142, Accuracy: 48.2421875
Best model saved
Epoch: 143, Accuracy: 48.32442434210527
Best model saved
Epoch: 144, Accuracy: 48.36554276315789
Best model saved
Epoch: 145, Accuracy: 47.84128289473684
Epoch: 146, Accuracy: 49.13651315789473
Best model saved
Epoch: 147, Accuracy: 48.334703947368425
Epoch: 148, Accuracy: 48.56085526315789
Epoch: 149, Accuracy: 49.15707236842105
Best model saved
Epoch: 150, Accuracy: 49.21875
Model saved to /home/h5guo/work/simsiam/ckpt/NoMixUp_randcrop_simsiam_cifar100_500/simsiam-cifar100-experiment-resnet18_cifar_variant1_150.pth
Best model saved
Epoch: 151, Accuracy: 49.64021381578947
Best model saved
Epoch: 152, Accuracy: 50.174753289473685
Best model saved
Epoch: 153, Accuracy: 49.72245065789473
Epoch: 154, Accuracy: 49.40378289473684
Epoch: 155, Accuracy: 49.506578947368425
Epoch: 156, Accuracy: 49.629934210526315
Epoch: 157, Accuracy: 49.434621710526315
Epoch: 158, Accuracy: 49.28042763157895
Epoch: 159, Accuracy: 50.29810855263158
Best model saved
Epoch: 160, Accuracy: 49.393503289473685
Epoch: 161, Accuracy: 50.812088815789465
Best model saved
Epoch: 162, Accuracy: 51.0485197368421
Best model saved
Epoch: 163, Accuracy: 50.24671052631579
Epoch: 164, Accuracy: 49.95888157894737
Epoch: 165, Accuracy: 50.555098684210535
Epoch: 166, Accuracy: 50.421463815789465
Epoch: 167, Accuracy: 50.59621710526315
Epoch: 168, Accuracy: 51.0485197368421
Epoch: 169, Accuracy: 51.31578947368421
Best model saved
Epoch: 170, Accuracy: 51.44942434210527
Best model saved
Epoch: 171, Accuracy: 51.2952302631579
Epoch: 172, Accuracy: 51.71669407894737
Best model saved
Epoch: 173, Accuracy: 50.79152960526315
Epoch: 174, Accuracy: 51.3671875
Epoch: 175, Accuracy: 50.421463815789465
Epoch: 176, Accuracy: 51.50082236842105
Epoch: 177, Accuracy: 51.346628289473685
Epoch: 178, Accuracy: 51.13075657894737
Epoch: 179, Accuracy: 51.983963815789465
Best model saved
Epoch: 180, Accuracy: 52.18955592105263
Best model saved
Epoch: 181, Accuracy: 51.89144736842105
Epoch: 182, Accuracy: 51.788651315789465
Epoch: 183, Accuracy: 52.01480263157895
Epoch: 184, Accuracy: 52.29235197368421
Best model saved
Epoch: 185, Accuracy: 51.81949013157895
Epoch: 186, Accuracy: 51.06907894736842
Epoch: 187, Accuracy: 52.78577302631579
Best model saved
Epoch: 188, Accuracy: 52.35402960526315
Epoch: 189, Accuracy: 52.97080592105263
Best model saved
Epoch: 190, Accuracy: 52.960526315789465
Epoch: 191, Accuracy: 52.60074013157895
Epoch: 192, Accuracy: 52.168996710526315
Epoch: 193, Accuracy: 51.99424342105263
Epoch: 194, Accuracy: 52.60074013157895
Epoch: 195, Accuracy: 53.22779605263158
Best model saved
Epoch: 196, Accuracy: 52.78577302631579
Epoch: 197, Accuracy: 53.21751644736842
Epoch: 198, Accuracy: 52.69325657894737
Epoch: 199, Accuracy: 53.84457236842105
Best model saved
Epoch: 200, Accuracy: 54.01932565789473
Model saved to /home/h5guo/work/simsiam/ckpt/NoMixUp_randcrop_simsiam_cifar100_500/simsiam-cifar100-experiment-resnet18_cifar_variant1_200.pth
Best model saved
Epoch: 201, Accuracy: 53.08388157894737
Epoch: 202, Accuracy: 54.05016447368421
Best model saved
Epoch: 203, Accuracy: 53.937088815789465
Epoch: 204, Accuracy: 52.9296875
Epoch: 205, Accuracy: 54.296875
Best model saved
Epoch: 206, Accuracy: 54.18379934210527
Epoch: 207, Accuracy: 53.80345394736842
Epoch: 208, Accuracy: 54.523026315789465
Best model saved
Epoch: 209, Accuracy: 53.40254934210527
Epoch: 210, Accuracy: 54.30715460526315
Epoch: 211, Accuracy: 53.96792763157895
Epoch: 212, Accuracy: 53.8342927631579
Epoch: 213, Accuracy: 54.461348684210535
Epoch: 214, Accuracy: 54.37911184210527
Epoch: 215, Accuracy: 54.317434210526315
Epoch: 216, Accuracy: 53.99876644736842
Epoch: 217, Accuracy: 54.63610197368421
Best model saved
Epoch: 218, Accuracy: 54.2249177631579
Epoch: 219, Accuracy: 54.25575657894737
Epoch: 220, Accuracy: 54.64638157894737
Best model saved
Epoch: 221, Accuracy: 54.708059210526315
Best model saved
Epoch: 222, Accuracy: 54.903371710526315
Best model saved
Epoch: 223, Accuracy: 54.471628289473685
Epoch: 224, Accuracy: 55.57154605263158
Best model saved
Epoch: 225, Accuracy: 55.499588815789465
Epoch: 226, Accuracy: 54.6875
Epoch: 227, Accuracy: 55.2734375
Epoch: 228, Accuracy: 55.21175986842105
Epoch: 229, Accuracy: 55.53042763157895
Epoch: 230, Accuracy: 55.02672697368421
Epoch: 231, Accuracy: 55.53042763157895
Epoch: 232, Accuracy: 55.11924342105263
Epoch: 233, Accuracy: 54.89309210526315
Epoch: 234, Accuracy: 56.00328947368421
Best model saved
Epoch: 235, Accuracy: 55.79769736842105
Epoch: 236, Accuracy: 55.633223684210535
Epoch: 237, Accuracy: 56.10608552631579
Best model saved
Epoch: 238, Accuracy: 56.34251644736842
Best model saved
Epoch: 239, Accuracy: 55.70518092105263
Epoch: 240, Accuracy: 56.023848684210535
Epoch: 241, Accuracy: 55.6640625
Epoch: 242, Accuracy: 55.65378289473685
Epoch: 243, Accuracy: 55.52014802631579
Epoch: 244, Accuracy: 55.72574013157895
Epoch: 245, Accuracy: 55.37623355263158
Epoch: 246, Accuracy: 56.19860197368421
Epoch: 247, Accuracy: 56.11636513157895
Epoch: 248, Accuracy: 55.41735197368421
Epoch: 249, Accuracy: 56.34251644736842
Epoch: 250, Accuracy: 55.58182565789473
Model saved to /home/h5guo/work/simsiam/ckpt/NoMixUp_randcrop_simsiam_cifar100_500/simsiam-cifar100-experiment-resnet18_cifar_variant1_250.pth
Epoch: 251, Accuracy: 55.79769736842105
Epoch: 252, Accuracy: 56.18832236842105
Epoch: 253, Accuracy: 56.465871710526315
Best model saved
Epoch: 254, Accuracy: 55.9313322368421
Epoch: 255, Accuracy: 56.866776315789465
Best model saved
Epoch: 256, Accuracy: 56.96957236842105
Best model saved
Epoch: 257, Accuracy: 56.40419407894737
Epoch: 258, Accuracy: 56.39391447368421
Epoch: 259, Accuracy: 56.49671052631579
Epoch: 260, Accuracy: 57.051809210526315
Best model saved
Epoch: 261, Accuracy: 57.12376644736842
Best model saved
Epoch: 262, Accuracy: 57.17516447368421
Best model saved
Epoch: 263, Accuracy: 57.2265625
Best model saved
Epoch: 264, Accuracy: 56.94901315789473
Epoch: 265, Accuracy: 57.57606907894737
Best model saved
Epoch: 266, Accuracy: 57.17516447368421
Epoch: 267, Accuracy: 56.91817434210527
Epoch: 268, Accuracy: 57.31907894736842
Epoch: 269, Accuracy: 56.74342105263158
Epoch: 270, Accuracy: 56.89761513157895
Epoch: 271, Accuracy: 55.838815789473685
Epoch: 272, Accuracy: 57.33963815789473
Epoch: 273, Accuracy: 56.77425986842105
Epoch: 274, Accuracy: 57.12376644736842
Epoch: 275, Accuracy: 57.26768092105263
Epoch: 276, Accuracy: 56.7639802631579
Epoch: 277, Accuracy: 57.82277960526315
Best model saved
Epoch: 278, Accuracy: 57.85361842105263
Best model saved
Epoch: 279, Accuracy: 57.03125
Epoch: 280, Accuracy: 57.37047697368421
Epoch: 281, Accuracy: 57.31907894736842
Epoch: 282, Accuracy: 57.28824013157895
Epoch: 283, Accuracy: 57.99753289473685
Best model saved
Epoch: 284, Accuracy: 58.028371710526315
Best model saved
Epoch: 285, Accuracy: 57.91529605263158
Epoch: 286, Accuracy: 58.01809210526315
Epoch: 287, Accuracy: 58.21340460526315
Best model saved
Epoch: 288, Accuracy: 58.21340460526315
Epoch: 289, Accuracy: 58.6657072368421
Best model saved
Epoch: 290, Accuracy: 58.367598684210535
Epoch: 291, Accuracy: 58.19284539473685
Epoch: 292, Accuracy: 57.87417763157895
Epoch: 293, Accuracy: 58.1311677631579
Epoch: 294, Accuracy: 58.172286184210535
Epoch: 295, Accuracy: 57.50411184210527
Epoch: 296, Accuracy: 57.637746710526315
Epoch: 297, Accuracy: 58.06949013157895
Epoch: 298, Accuracy: 57.6171875
Epoch: 299, Accuracy: 58.53207236842105
Epoch: 300, Accuracy: 58.3264802631579
Model saved to /home/h5guo/work/simsiam/ckpt/NoMixUp_randcrop_simsiam_cifar100_500/simsiam-cifar100-experiment-resnet18_cifar_variant1_300.pth
Epoch: 301, Accuracy: 58.73766447368421
Best model saved
Epoch: 302, Accuracy: 58.418996710526315
Epoch: 303, Accuracy: 58.55263157894737
Epoch: 304, Accuracy: 58.12088815789473
Epoch: 305, Accuracy: 58.028371710526315
Epoch: 306, Accuracy: 58.223684210526315
Epoch: 307, Accuracy: 58.768503289473685
Best model saved
Epoch: 308, Accuracy: 58.4703947368421
Epoch: 309, Accuracy: 58.19284539473685
Epoch: 310, Accuracy: 59.200246710526315
Best model saved
Epoch: 311, Accuracy: 58.5217927631579
Epoch: 312, Accuracy: 58.74794407894737
Epoch: 313, Accuracy: 58.01809210526315
Epoch: 314, Accuracy: 58.29564144736842
Epoch: 315, Accuracy: 58.233963815789465
Epoch: 316, Accuracy: 59.48807565789473
Best model saved
Epoch: 317, Accuracy: 58.65542763157895
Epoch: 318, Accuracy: 59.0563322368421
Epoch: 319, Accuracy: 59.200246710526315
Epoch: 320, Accuracy: 59.159128289473685
Epoch: 321, Accuracy: 59.42639802631579
Epoch: 322, Accuracy: 59.539473684210535
Best model saved
Epoch: 323, Accuracy: 59.405838815789465
Epoch: 324, Accuracy: 59.200246710526315
Epoch: 325, Accuracy: 58.89185855263158
Epoch: 326, Accuracy: 59.6422697368421
Best model saved
Epoch: 327, Accuracy: 58.7890625
Epoch: 328, Accuracy: 58.60402960526315
Epoch: 329, Accuracy: 59.2516447368421
Epoch: 330, Accuracy: 58.85074013157895
Epoch: 331, Accuracy: 59.159128289473685
Epoch: 332, Accuracy: 59.601151315789465
Epoch: 333, Accuracy: 59.9609375
Best model saved
Epoch: 334, Accuracy: 59.200246710526315
Epoch: 335, Accuracy: 59.27220394736842
Epoch: 336, Accuracy: 59.23108552631579
Epoch: 337, Accuracy: 59.13856907894737
Epoch: 338, Accuracy: 59.32360197368421
Epoch: 339, Accuracy: 58.90213815789473
Epoch: 340, Accuracy: 59.31332236842105
Epoch: 341, Accuracy: 59.75534539473685
Epoch: 342, Accuracy: 59.56003289473685
Epoch: 343, Accuracy: 59.56003289473685
Epoch: 344, Accuracy: 60.07401315789473
Best model saved
Epoch: 345, Accuracy: 59.200246710526315
Epoch: 346, Accuracy: 59.38527960526315
Epoch: 347, Accuracy: 59.81702302631579
Epoch: 348, Accuracy: 59.5703125
Epoch: 349, Accuracy: 59.395559210526315
Epoch: 350, Accuracy: 59.148848684210535
Model saved to /home/h5guo/work/simsiam/ckpt/NoMixUp_randcrop_simsiam_cifar100_500/simsiam-cifar100-experiment-resnet18_cifar_variant1_350.pth
Epoch: 351, Accuracy: 60.34128289473685
Best model saved
Epoch: 352, Accuracy: 59.405838815789465
Epoch: 353, Accuracy: 60.09457236842105
Epoch: 354, Accuracy: 59.50863486842105
Epoch: 355, Accuracy: 59.84786184210527
Epoch: 356, Accuracy: 59.89925986842105
Epoch: 357, Accuracy: 59.86842105263158
Epoch: 358, Accuracy: 59.786184210526315
Epoch: 359, Accuracy: 60.24876644736842
Epoch: 360, Accuracy: 59.80674342105263
Epoch: 361, Accuracy: 60.125411184210535
Epoch: 362, Accuracy: 60.28988486842105
Epoch: 363, Accuracy: 60.09457236842105
Epoch: 364, Accuracy: 60.46463815789473
Best model saved
Epoch: 365, Accuracy: 59.90953947368421
Epoch: 366, Accuracy: 59.8889802631579
Epoch: 367, Accuracy: 60.10485197368421
Epoch: 368, Accuracy: 59.8889802631579
Epoch: 369, Accuracy: 60.46463815789473
Epoch: 370, Accuracy: 59.81702302631579
Epoch: 371, Accuracy: 59.90953947368421
Epoch: 372, Accuracy: 60.07401315789473
Epoch: 373, Accuracy: 60.28988486842105
Epoch: 374, Accuracy: 60.06373355263158
Epoch: 375, Accuracy: 60.39268092105263
Epoch: 376, Accuracy: 59.89925986842105
Epoch: 377, Accuracy: 60.09457236842105
Epoch: 378, Accuracy: 59.91981907894737
Epoch: 379, Accuracy: 59.81702302631579
Epoch: 380, Accuracy: 60.24876644736842
Epoch: 381, Accuracy: 60.3515625
Epoch: 382, Accuracy: 60.50575657894737
Best model saved
Epoch: 383, Accuracy: 60.19736842105263
Epoch: 384, Accuracy: 60.43379934210527
Epoch: 385, Accuracy: 60.48519736842105
Epoch: 386, Accuracy: 60.958059210526315
Best model saved
Epoch: 387, Accuracy: 61.19449013157895
Best model saved
Epoch: 388, Accuracy: 60.516036184210535
Epoch: 389, Accuracy: 60.916940789473685
Epoch: 390, Accuracy: 60.3515625
Epoch: 391, Accuracy: 60.68050986842105
Epoch: 392, Accuracy: 60.99917763157895
Epoch: 393, Accuracy: 60.546875
Epoch: 394, Accuracy: 60.43379934210527
Epoch: 395, Accuracy: 60.516036184210535
Epoch: 396, Accuracy: 61.09169407894737
Epoch: 397, Accuracy: 60.78330592105263
Epoch: 398, Accuracy: 61.01973684210527
Epoch: 399, Accuracy: 61.1328125
Epoch: 400, Accuracy: 60.78330592105263
Model saved to /home/h5guo/work/simsiam/ckpt/NoMixUp_randcrop_simsiam_cifar100_500/simsiam-cifar100-experiment-resnet18_cifar_variant1_400.pth
Epoch: 401, Accuracy: 60.2796052631579
Epoch: 402, Accuracy: 61.23560855263158
Best model saved
Epoch: 403, Accuracy: 61.297286184210535
Best model saved
Epoch: 404, Accuracy: 60.382401315789465
Epoch: 405, Accuracy: 60.69078947368421
Epoch: 406, Accuracy: 60.55715460526315
Epoch: 407, Accuracy: 60.26932565789473
Epoch: 408, Accuracy: 60.45435855263158
Epoch: 409, Accuracy: 60.567434210526315
Epoch: 410, Accuracy: 61.12253289473685
Epoch: 411, Accuracy: 61.19449013157895
Epoch: 412, Accuracy: 61.0094572368421
Epoch: 413, Accuracy: 60.80386513157895
Epoch: 414, Accuracy: 60.79358552631579
Epoch: 415, Accuracy: 60.7421875
Epoch: 416, Accuracy: 61.112253289473685
Epoch: 417, Accuracy: 61.297286184210535
Epoch: 418, Accuracy: 61.543996710526315
Best model saved
Epoch: 419, Accuracy: 60.98889802631579
Epoch: 420, Accuracy: 60.88610197368421
Epoch: 421, Accuracy: 61.2561677631579
Epoch: 422, Accuracy: 60.4749177631579
Epoch: 423, Accuracy: 60.97861842105263
Epoch: 424, Accuracy: 61.04029605263158
Epoch: 425, Accuracy: 61.37952302631579
Epoch: 426, Accuracy: 61.2047697368421
Epoch: 427, Accuracy: 60.70106907894737
Epoch: 428, Accuracy: 60.69078947368421
Epoch: 429, Accuracy: 61.112253289473685
Epoch: 430, Accuracy: 60.99917763157895
Epoch: 431, Accuracy: 61.33840460526315
Epoch: 432, Accuracy: 61.33840460526315
Epoch: 433, Accuracy: 61.37952302631579
Epoch: 434, Accuracy: 61.04029605263158
Epoch: 435, Accuracy: 61.112253289473685
Epoch: 436, Accuracy: 60.92722039473685
Epoch: 437, Accuracy: 61.53371710526315
Epoch: 438, Accuracy: 60.99917763157895
Epoch: 439, Accuracy: 61.23560855263158
Epoch: 440, Accuracy: 61.22532894736842
Epoch: 441, Accuracy: 61.36924342105263
Epoch: 442, Accuracy: 61.27672697368421
Epoch: 443, Accuracy: 61.12253289473685
Epoch: 444, Accuracy: 61.163651315789465
Epoch: 445, Accuracy: 60.99917763157895
Epoch: 446, Accuracy: 60.84498355263158
Epoch: 447, Accuracy: 61.36924342105263
Epoch: 448, Accuracy: 61.14309210526315
Epoch: 449, Accuracy: 61.24588815789473
Epoch: 450, Accuracy: 61.348684210526315
Model saved to /home/h5guo/work/simsiam/ckpt/NoMixUp_randcrop_simsiam_cifar100_500/simsiam-cifar100-experiment-resnet18_cifar_variant1_450.pth
Epoch: 451, Accuracy: 60.99917763157895
Epoch: 452, Accuracy: 61.101973684210535
Epoch: 453, Accuracy: 61.21504934210527
Epoch: 454, Accuracy: 61.09169407894737
Epoch: 455, Accuracy: 60.9375
Epoch: 456, Accuracy: 61.28700657894737
Epoch: 457, Accuracy: 61.1328125
Epoch: 458, Accuracy: 60.98889802631579
Epoch: 459, Accuracy: 61.31784539473685
Epoch: 460, Accuracy: 61.23560855263158
Epoch: 461, Accuracy: 61.698190789473685
Best model saved
Epoch: 462, Accuracy: 61.28700657894737
Epoch: 463, Accuracy: 61.26644736842105
Epoch: 464, Accuracy: 61.31784539473685
Epoch: 465, Accuracy: 61.38980263157895
Epoch: 466, Accuracy: 61.48231907894737
Epoch: 467, Accuracy: 61.33840460526315
Epoch: 468, Accuracy: 61.65707236842105
Epoch: 469, Accuracy: 61.492598684210535
Epoch: 470, Accuracy: 61.58511513157895
Epoch: 471, Accuracy: 61.543996710526315
Epoch: 472, Accuracy: 61.43092105263158
Epoch: 473, Accuracy: 61.44120065789473
Epoch: 474, Accuracy: 61.41036184210527
Epoch: 475, Accuracy: 61.348684210526315
Epoch: 476, Accuracy: 61.51315789473685
Epoch: 477, Accuracy: 61.4000822368421
Epoch: 478, Accuracy: 61.502878289473685
Epoch: 479, Accuracy: 61.44120065789473
Epoch: 480, Accuracy: 61.5234375
Epoch: 481, Accuracy: 61.543996710526315
Epoch: 482, Accuracy: 61.63651315789473
Epoch: 483, Accuracy: 61.70847039473685
Best model saved
Epoch: 484, Accuracy: 61.554276315789465
Epoch: 485, Accuracy: 61.58511513157895
Epoch: 486, Accuracy: 61.63651315789473
Epoch: 487, Accuracy: 61.698190789473685
Epoch: 488, Accuracy: 61.554276315789465
Epoch: 489, Accuracy: 61.543996710526315
Epoch: 490, Accuracy: 61.543996710526315
Epoch: 491, Accuracy: 61.53371710526315
Epoch: 492, Accuracy: 61.42064144736842
Epoch: 493, Accuracy: 61.543996710526315
Epoch: 494, Accuracy: 61.60567434210527
Epoch: 495, Accuracy: 61.307565789473685
Epoch: 496, Accuracy: 61.543996710526315
Epoch: 497, Accuracy: 61.554276315789465
Epoch: 498, Accuracy: 61.48231907894737
/home/h5guo/anaconda3/envs/cssl/lib/python3.9/site-packages/torchvision/transforms/transforms.py:891: UserWarning: Argument 'interpolation' of type int is deprecated since 0.13 and will be removed in 0.15. Please use InterpolationMode enum.
  warnings.warn(
Epoch: 499, Accuracy: 61.492598684210535
Model saved to /home/h5guo/work/simsiam/ckpt/NoMixUp_randcrop_simsiam_cifar100_500/simsiam-cifar100-experiment-resnet18_cifar_variant1_final_epoch.pth
Files already downloaded and verified
Files already downloaded and verified
out_feature: 100
Epoch: 0, Acc: 0, Acc_avg: 0
Epoch: 1, Acc: 0, Acc_avg: 0
Epoch: 2, Acc: 0, Acc_avg: 0
Epoch: 3, Acc: 0, Acc_avg: 0
Epoch: 4, Acc: 0, Acc_avg: 0
Epoch: 5, Acc: 0, Acc_avg: 0
Epoch: 6, Acc: 0, Acc_avg: 0
Epoch: 7, Acc: 0, Acc_avg: 0
Epoch: 8, Acc: 0, Acc_avg: 0
Epoch: 9, Acc: 0, Acc_avg: 0
Epoch: 10, Acc: 0, Acc_avg: 0
Epoch: 11, Acc: 0, Acc_avg: 0
Epoch: 12, Acc: 0, Acc_avg: 0
Epoch: 13, Acc: 0, Acc_avg: 0
Epoch: 14, Acc: 0, Acc_avg: 0
Epoch: 15, Acc: 0, Acc_avg: 0
Epoch: 16, Acc: 0, Acc_avg: 0
Epoch: 17, Acc: 0, Acc_avg: 0
Epoch: 18, Acc: 0, Acc_avg: 0
Epoch: 19, Acc: 0, Acc_avg: 0
Epoch: 20, Acc: 0, Acc_avg: 0
Epoch: 21, Acc: 0, Acc_avg: 0
Epoch: 22, Acc: 0, Acc_avg: 0
Epoch: 23, Acc: 0, Acc_avg: 0
Epoch: 24, Acc: 0, Acc_avg: 0
Epoch: 25, Acc: 0, Acc_avg: 0
Epoch: 26, Acc: 0, Acc_avg: 0
Epoch: 27, Acc: 0, Acc_avg: 0
Epoch: 28, Acc: 0, Acc_avg: 0
Epoch: 29, Acc: 0, Acc_avg: 0
Epoch: 30, Acc: 0, Acc_avg: 0
Epoch: 31, Acc: 0, Acc_avg: 0
Epoch: 32, Acc: 0, Acc_avg: 0
Epoch: 33, Acc: 0, Acc_avg: 0
Epoch: 34, Acc: 0, Acc_avg: 0
Epoch: 35, Acc: 0, Acc_avg: 0
Epoch: 36, Acc: 0, Acc_avg: 0
Epoch: 37, Acc: 0, Acc_avg: 0
Epoch: 38, Acc: 0, Acc_avg: 0
Epoch: 39, Acc: 0, Acc_avg: 0
Epoch: 40, Acc: 0, Acc_avg: 0
Epoch: 41, Acc: 0, Acc_avg: 0
Epoch: 42, Acc: 0, Acc_avg: 0
Epoch: 43, Acc: 0, Acc_avg: 0
Epoch: 44, Acc: 0, Acc_avg: 0
Epoch: 45, Acc: 0, Acc_avg: 0
Epoch: 46, Acc: 0, Acc_avg: 0
Epoch: 47, Acc: 0, Acc_avg: 0
Epoch: 48, Acc: 0, Acc_avg: 0
Epoch: 49, Acc: 0, Acc_avg: 0
Epoch: 50, Acc: 0, Acc_avg: 0
Epoch: 51, Acc: 0, Acc_avg: 0
Epoch: 52, Acc: 0, Acc_avg: 0
Epoch: 53, Acc: 0, Acc_avg: 0
Epoch: 54, Acc: 0, Acc_avg: 0
Epoch: 55, Acc: 0, Acc_avg: 0
Epoch: 56, Acc: 0, Acc_avg: 0
Epoch: 57, Acc: 0, Acc_avg: 0
Epoch: 58, Acc: 0, Acc_avg: 0
Epoch: 59, Acc: 0, Acc_avg: 0
Epoch: 60, Acc: 0, Acc_avg: 0
Epoch: 61, Acc: 0, Acc_avg: 0
Epoch: 62, Acc: 0, Acc_avg: 0
Epoch: 63, Acc: 0, Acc_avg: 0
Epoch: 64, Acc: 0, Acc_avg: 0
Epoch: 65, Acc: 0, Acc_avg: 0
Epoch: 66, Acc: 0, Acc_avg: 0
Epoch: 67, Acc: 0, Acc_avg: 0
Epoch: 68, Acc: 0, Acc_avg: 0
Epoch: 69, Acc: 0, Acc_avg: 0
Epoch: 70, Acc: 0, Acc_avg: 0
Epoch: 71, Acc: 0, Acc_avg: 0
Epoch: 72, Acc: 0, Acc_avg: 0
Epoch: 73, Acc: 0, Acc_avg: 0
Epoch: 74, Acc: 0, Acc_avg: 0
Epoch: 75, Acc: 0, Acc_avg: 0
Epoch: 76, Acc: 0, Acc_avg: 0
Epoch: 77, Acc: 0, Acc_avg: 0
Epoch: 78, Acc: 0, Acc_avg: 0
Epoch: 79, Acc: 0, Acc_avg: 0
Epoch: 80, Acc: 0, Acc_avg: 0
Epoch: 81, Acc: 0, Acc_avg: 0
Epoch: 82, Acc: 0, Acc_avg: 0
Epoch: 83, Acc: 0, Acc_avg: 0
Epoch: 84, Acc: 0, Acc_avg: 0
Epoch: 85, Acc: 0, Acc_avg: 0
Epoch: 86, Acc: 0, Acc_avg: 0
Epoch: 87, Acc: 0, Acc_avg: 0
Epoch: 88, Acc: 0, Acc_avg: 0
Epoch: 89, Acc: 0, Acc_avg: 0
Epoch: 90, Acc: 0, Acc_avg: 0
Epoch: 91, Acc: 0, Acc_avg: 0
Epoch: 92, Acc: 0, Acc_avg: 0
Epoch: 93, Acc: 0, Acc_avg: 0
Epoch: 94, Acc: 0, Acc_avg: 0
Epoch: 95, Acc: 0, Acc_avg: 0
Epoch: 96, Acc: 0, Acc_avg: 0
Epoch: 97, Acc: 0, Acc_avg: 0
Epoch: 98, Acc: 0, Acc_avg: 0
Epoch: 99, Acc: 0, Acc_avg: 0
Accuracy = 65.89
Log file has been saved to /home/h5guo/simsiam/logs/NoMixUp_randcrop_simsiam_cifar100_500/completed_1106234206_simsiam-cifar100-experiment-resnet18_cifar_variant1
